FILES.DB
FN=C:\SOURCE\C51\LIB\Bcd.c51
FN=C:\SOURCE\C51\LIB\main.c51
FN=C:\SOURCE\C51\LIB\Makefile
ASSOCIATE.DB
URL.DB
VERSION.DB
NUM=13
PROJECT.CFG
/GS=!PrjRootPath=c:\SOURCE\C51\LIB\
/GS=!PrjFtpHost=
/GS=!PrjFtpUser=
/GS=!PrjFtpPass=
/GS=!PrjFtpRoot=
/GS=!PrjSearchPath=c:\SOURCE\C51\LIB\
/GI=!PrjFtpMode=0
/GS=TagPath=c:\SOURCE\C51\LIB\
/GS=!Wl_CCPath=
/GS=!PrjBuildEnv=
/GS=!PrjDebugEnv=
/GS=!PrjReleaseMake=Build all
/GS=!PrjDebugMake=Build all
/GS=!PrjReleaseBuild=Build all
/GS=!PrjDebugBuild=Build all
/GS=!PrjDebug=Build all
/GI=!PrjSortStyle=0
/GI=!PrjSortAscend=0
